x,y,z
0.00,0.00,0.00
0.00,0.00,0.00
1.01,-0.29,-1.59
2.73,0.25,-2.41
2.92,0.17,-2.75
4.40,-0.16,-1.44
3.76,-0.46,-0.92
4.63,-0.38,-1.06
3.48,-0.20,-1.37
2.21,0.82,-0.69
1.57,2.06,3.42
6.57,-0.61,15.93
15.94,-3.69,31.33
31.40,-4.63,34.53
45.09,-5.39,17.38
51.44,-1.94,-14.44
31.37,-1.26,-55.81
-5.35,-3.75,-92.55
-52.77,-14.62,-100.00
-80.87,-23.02,-61.67
-84.32,-32.56,-9.09
-54.60,-31.34,30.52
-16.11,-29.79,53.47
20.87,-21.96,56.42
36.68,-17.16,34.88
36.54,-15.15,12.73
32.75,-19.24,9.64
40.46,-19.92,13.47
51.21,-20.99,6.16
57.03,-23.82,-5.08
40.53,-33.13,-29.46
3.99,-43.69,-58.23
-38.22,-54.55,-78.07
-76.47,-71.22,-71.29
-100.00,-89.72,-40.86
-90.68,-95.01,5.68
-55.30,-100.00,40.65
-11.59,-97.66,56.74
20.98,-92.90,59.91
43.74,-84.50,42.05
47.66,-82.10,15.86
36.32,-78.39,0.13
13.88,-80.72,-2.65
0.89,-79.90,-5.13
-5.58,-78.75,-7.45
-6.69,-78.29,-7.66
-6.93,-76.74,-5.96
-6.67,-75.21,-7.17
0.00,0.00,0.00
0.00,0.00,0.00
