x,y,z
0.00,0.00,0.00
0.00,0.00,0.00
0.09,-0.54,3.65
3.27,-1.28,3.59
11.90,-5.86,14.50
26.33,-9.62,17.62
41.81,-13.46,19.45
55.86,-16.41,13.79
65.62,-17.14,-2.32
60.55,-13.95,-27.07
42.95,-8.87,-58.29
18.35,-4.77,-88.54
-10.84,4.59,-100.00
-42.78,11.24,-78.31
-63.84,15.54,-55.05
-78.78,18.49,-17.26
-83.70,18.25,22.11
-83.12,13.01,43.99
-74.81,5.62,53.55
-56.67,-4.01,54.10
-16.51,-24.51,54.19
13.70,-33.91,54.85
38.42,-41.04,46.84
44.88,-37.28,31.98
46.44,-36.05,28.55
26.13,-20.76,27.53
18.70,-17.14,20.72
11.92,-11.99,26.56
18.40,-14.21,21.47
22.40,-15.12,-0.08
22.02,-17.98,-29.44
8.31,-14.07,-54.66
-0.81,-15.06,-83.03
-16.27,-17.36,-98.57
-41.63,-12.43,-82.79
-62.95,-11.43,-66.75
-81.04,-17.32,-38.07
-94.99,-30.24,-6.98
-98.56,-40.73,13.91
-100.00,-51.95,47.85
-70.37,-72.72,68.21
-30.89,-92.29,73.18
-5.22,-92.83,72.67
16.88,-98.15,65.11
30.67,-100.00,28.43
12.23,-89.21,2.34
-13.23,-77.26,-16.44
-30.80,-73.98,-26.46
0.00,0.00,0.00
0.00,0.00,0.00
