x,y,z
648,-2072,23200
20,56,21588
896,-408,21660
332,-208,23008
672,-680,22476
676,-416,21976
312,116,22268
-56,244,21988
360,288,21824
960,-752,22248
388,-228,22316
656,-132,22168
1212,-632,21948
-212,108,22220
-204,32,22932
144,-316,22688
1416,-512,21860
1012,-764,22528
228,172,21244
1136,-380,22076
928,4,22024
2000,-736,22836
2468,-672,21560
4052,-908,21460
5288,-1112,21988
5664,-1492,23592
7412,-1868,24240
7724,-1944,21460
6264,-676,22268
5684,-696,25036
6900,-1156,24836
5708,-1236,27192
4028,-120,26920
5092,-1288,28880
2808,-1280,31216
1116,-1420,30920
212,-1924,31364
-896,-2092,30424
-1252,-2784,31428
-4296,-2052,32276
-6832,-1848,31472
-9760,-248,28560
-7476,-1744,29784
-5956,-2028,25904
-8564,-1124,25560
-10308,128,22552
-8056,264,23716
-7228,-376,22316
-9036,904,19324
-8204,1620,16156
-7428,2588,16328
-6060,2592,15448
-6592,2968,12540
-5032,3580,10436
-1968,2480,10604
-1436,2600,8740
-1256,3924,6952
-3388,5756,9408
-3220,5496,12356
-880,5552,10508
392,5816,10412
1736,5212,10472
1544,5552,10540
4364,5068,11048
7356,4472,11476
5964,3884,11128
6572,3416,10732
10024,3912,13876
11772,1776,16356
9028,2320,15208
8316,2636,17000
10384,2316,18920
9468,2060,21132
7204,1708,24692
9008,2308,18292
10628,1212,22648
8812,528,27476
5892,1448,32316
5816,1156,20232
8776,-196,30104
9756,-2572,32767
5488,-2044,28416
2372,-868,27840
2272,-724,32767
428,-300,32604
-560,156,29464
1044,-620,21556
-468,696,24948
1324,-1448,30008
-2140,-780,27404
-3356,-136,24852
-2064,-392,25192
-3448,300,24324
-5208,584,24480
-6700,1336,22220
-3300,728,22516
-1864,-32,21460
-3372,1064,22388
-3084,1220,22692
-348,368,21704
2200,-588,21624
1292,224,20992
-1348,1392,22608
2444,-316,22388
2128,-20,22040
1248,132,23168
1408,160,21244
2524,256,21724
1996,364,21364
1928,208,22692
2484,100,22052
1948,140,22308
2240,452,21420
2892,236,21976
2024,48,22312
2948,-764,23736
2248,564,22756
