x,y,z
1040,-1416,13812
-872,-1544,14232
-1388,-1356,15088
-1832,-1268,15872
-1608,-1260,15400
-1412,-1260,14944
-1096,-1496,14740
-1028,-1488,14940
-1228,-1356,15204
-1212,-1536,15240
-924,-1564,14748
-872,-1540,15488
-728,-1672,15204
-384,-1568,14932
68,-1908,15536
576,-2188,15308
1352,-2028,15132
2720,-2292,15372
3620,-2204,17080
3264,-2080,18560
3340,-2804,18440
3560,-2576,19220
3160,-2664,20088
3408,-3584,20044
2696,-3472,20356
-388,-3032,22988
-1688,-2860,21352
-1824,-3484,20620
-2048,-3792,20880
-4604,-3528,21424
-5636,-3200,20104
-6256,-2560,17852
-5656,-3248,17400
-6900,-2552,16340
-9112,-580,15760
-8316,-204,12928
-6676,-312,10900
-7292,120,12404
-7584,540,12268
-6408,1056,9944
-5952,464,10912
-6072,1332,10696
-5416,1648,10460
-4968,1372,10824
-4848,1392,9464
-3408,2124,7724
-2368,1720,6940
-1988,2016,7840
-408,2136,6676
1012,1928,4868
1060,1796,5208
1104,1980,6556
2632,1736,5580
2492,1996,6080
2468,2380,5948
2172,1304,8380
1916,1096,10684
3828,-476,7776
4344,56,9100
3208,-2024,13612
3812,-2140,14760
4316,-2220,12704
3956,-2132,14096
2472,-4300,18904
2828,-3084,20316
4312,-4708,17076
2808,-4664,19932
412,-3296,20848
2096,-4408,18948
2080,-5600,20480
-1852,-4740,23396
-1696,-3724,20768
-1116,-4636,20708
-944,-4924,20448
-3804,-3708,21392
-5552,-2920,19448
-4396,-3032,17368
-4644,-3588,17352
-6808,-1952,18488
-7900,-1700,17008
-4692,-2520,14144
-4128,-3388,15160
-6592,-2020,16676
-6248,196,15252
-4288,-3248,14688
-3212,-3476,15168
-2816,-3204,14588
-2812,-3596,15080
-2108,-3404,15116
-1704,-3196,14660
-2072,-2620,14128
-2256,-2688,14804
-2760,-2272,14944
-1764,-2280,14044
