x,y,z
2280,-392,21184
-484,968,22780
876,436,22364
792,960,22224
292,864,21824
-604,1948,21232
-164,1452,21800
-124,1412,22000
372,1000,21872
432,720,22172
-64,1476,21924
816,924,21788
1364,560,21524
292,1224,22496
324,1212,21440
3312,296,21588
6368,-2176,22484
5708,-1032,25940
6092,-76,21956
6592,312,21488
6756,-336,28096
5184,348,31600
2788,1548,28592
2720,888,28180
2636,788,30048
632,1088,31472
-500,484,30564
-2196,988,28120
-3592,1720,28888
-7528,2276,31636
-7876,2032,29248
-6908,2112,26828
-7104,1192,27244
-6660,476,27000
-6788,648,23768
-7356,2144,21356
-7716,2808,19812
-10264,5200,18912
-8564,4328,19192
-7296,4172,16456
-5604,4756,16156
-6580,5144,13240
-6876,5300,14420
-5360,5252,14740
-2532,4480,13940
-1736,4472,11048
-1704,4720,11400
-2944,5516,11744
-1264,4964,10556
2588,3336,11212
3200,3636,10536
2304,3936,11104
2112,4220,10860
3588,4652,12688
5332,3216,15416
5032,2692,14372
4392,4420,12920
5012,4676,14464
7020,3156,17252
8304,2092,17056
6816,2992,14996
6000,3428,18128
6320,2732,19956
7504,1236,20344
7264,416,18952
6844,1612,20828
7604,1276,23920
7712,-584,23620
6108,784,21628
5828,568,24636
5076,-244,27588
3868,-124,25604
3492,-428,25084
6268,-1108,27396
5740,-2724,31944
2532,-792,25732
904,264,25140
2716,-164,27780
3152,-904,30212
1120,-1032,26948
-68,-176,24784
-484,-288,25896
-540,-492,28592
-1348,-1776,27092
-2696,-952,22080
-4812,524,23448
-5540,696,25072
-5072,100,24244
-4584,-4,22120
-4452,464,22196
-3688,440,20916
-3328,608,22008
-2896,208,22728
-2652,444,21452
-1400,388,22200
-896,-48,22688
-1092,116,22944
-1280,32,21524
84,216,22156
172,-40,22384
52,-156,21700
776,-172,21712
532,-452,21868
1588,-228,21988
1856,-896,21624
