x,y,z
0.00,0.00,0.00
0.00,0.00,0.00
-2.32,8.22,-2.80
-6.59,15.02,-1.53
-7.27,17.45,-1.74
-0.63,14.33,-1.95
13.25,3.26,5.79
27.92,0.52,6.07
37.78,-1.79,23.67
42.77,-2.66,36.44
36.19,-0.98,54.81
15.53,10.02,60.05
-18.47,18.26,75.10
-46.16,21.48,67.84
-68.55,20.53,58.29
-87.51,30.30,36.38
-100.00,43.07,17.11
-95.62,55.42,-11.42
-93.55,72.90,-35.86
-82.43,89.92,-58.37
-69.76,100.00,-74.06
-45.69,97.06,-88.68
-26.12,92.78,-96.69
-2.74,89.61,-100.00
13.78,83.10,-96.48
33.14,78.38,-89.35
46.81,73.24,-79.50
55.83,69.36,-63.87
64.45,52.13,-51.18
70.44,44.74,-33.38
71.89,29.03,-20.84
65.77,16.94,1.28
60.50,1.03,13.54
54.54,-11.66,34.40
40.82,-17.23,40.07
30.98,-24.53,53.04
18.18,-24.56,49.01
6.10,-28.77,52.82
-16.16,-17.46,39.53
-32.03,-17.42,35.70
-47.20,-11.06,23.17
-53.99,-7.72,16.76
-56.35,0.76,5.74
-47.84,-0.74,4.79
-36.84,-0.52,0.29
-26.39,-3.14,0.01
-17.46,-7.22,-0.67
-7.96,-13.07,-0.90
0.00,0.00,0.00
0.00,0.00,0.00
