x,y,z
0.00,0.00,0.00
0.00,0.00,0.00
-7.18,6.21,3.21
-21.23,25.22,14.26
-20.05,22.42,13.84
-20.42,23.72,14.70
-18.97,22.86,15.31
-17.90,22.89,16.25
-16.08,22.54,17.65
-8.16,18.42,16.00
-0.95,15.01,19.72
13.00,4.66,18.12
21.92,-0.98,21.28
26.98,-9.35,28.27
21.96,-17.77,39.90
12.91,-26.47,49.65
-11.70,-23.95,68.15
-36.18,-21.57,82.01
-61.12,-15.20,87.76
-81.60,2.46,78.61
-97.04,25.15,57.30
-100.00,45.62,17.79
-94.47,65.71,-24.28
-84.62,86.32,-59.54
-67.48,94.16,-85.70
-50.04,100.00,-100.00
-30.20,96.32,-95.20
-10.54,90.25,-84.16
8.22,77.74,-69.06
20.89,68.57,-44.96
34.08,49.13,-16.80
40.49,33.06,13.95
39.91,15.16,44.66
35.09,-3.29,70.77
22.67,-16.53,89.84
10.67,-29.99,86.39
-10.30,-32.73,78.37
-27.15,-36.56,63.40
-49.32,-22.05,46.18
-58.89,-16.06,27.53
-68.71,-1.95,27.94
-62.10,-0.36,22.26
-55.25,5.78,20.28
-38.57,0.88,17.57
-27.07,-3.17,20.10
-16.12,-10.44,17.80
-11.49,-12.12,17.10
-12.14,-11.29,19.48
0.00,0.00,0.00
0.00,0.00,0.00
