x,y,z
0.00,0.00,0.00
0.00,0.00,0.00
0.50,0.70,0.18
-1.95,5.95,0.86
0.36,5.89,-0.58
2.82,5.13,1.64
10.15,1.41,1.21
16.27,-1.22,3.31
24.00,-7.78,8.39
34.41,-16.53,17.37
43.34,-29.18,28.34
46.74,-41.59,43.01
39.62,-47.74,57.59
24.90,-49.03,65.78
-7.14,-40.28,72.26
-36.45,-33.08,63.88
-69.02,-12.59,44.33
-90.29,6.96,18.59
-100.00,28.87,-10.56
-93.24,44.34,-43.76
-86.29,73.56,-68.25
-71.31,88.48,-81.07
-53.25,100.00,-92.57
-31.66,98.28,-97.47
-7.28,92.83,-100.00
17.88,78.69,-96.03
39.59,62.04,-86.30
57.63,40.59,-68.35
70.39,21.13,-50.76
73.84,3.53,-26.89
74.63,-20.24,-2.60
69.69,-35.71,21.00
64.32,-46.85,37.57
49.18,-49.48,55.83
38.26,-59.17,63.79
16.57,-49.08,63.93
-2.47,-40.02,52.45
-33.20,-22.04,43.14
-50.52,-11.82,26.85
-67.28,7.64,15.91
-67.95,11.29,7.84
-65.68,16.09,2.05
-49.73,8.74,-2.63
-33.83,1.32,-3.72
-24.03,-2.99,-2.06
-14.21,-7.92,-2.56
-7.66,-10.03,0.27
-1.35,-15.23,3.96
0.00,0.00,0.00
0.00,0.00,0.00
