x,y,z
0.00,0.00,0.00
0.00,0.00,0.00
-5.51,-3.50,5.68
-2.55,-8.01,10.54
5.40,-15.78,14.86
17.27,-17.88,28.70
30.24,-16.67,41.15
37.18,-7.90,50.37
31.36,-1.28,67.56
18.66,5.63,78.83
-9.49,15.97,72.83
-37.59,14.62,68.72
-66.16,17.79,55.77
-81.60,23.24,28.48
-100.00,44.97,-1.76
-98.12,58.98,-26.87
-94.88,79.17,-56.81
-77.07,88.52,-77.16
-57.14,100.00,-93.27
-28.44,95.89,-97.51
-4.14,93.64,-100.00
17.49,93.03,-91.57
37.58,85.59,-79.94
52.16,76.81,-58.88
62.85,62.34,-42.47
69.87,46.77,-22.22
72.94,23.25,-3.83
71.60,3.54,12.42
60.83,-11.03,25.92
57.47,-25.82,34.92
41.89,-28.00,40.40
31.13,-27.85,48.42
10.63,-25.22,49.13
3.83,-32.79,46.60
-19.22,-20.79,47.84
-33.06,-16.24,45.13
-49.00,-7.33,32.53
-49.42,-2.37,25.40
-57.75,11.24,17.27
-51.49,11.85,10.79
-43.61,9.98,4.64
-32.66,7.78,4.19
-25.90,5.63,5.13
-17.71,1.07,6.71
-12.42,-0.85,6.88
-7.92,-3.29,8.87
-4.98,-5.02,10.03
-4.29,-2.62,6.33
0.00,0.00,0.00
0.00,0.00,0.00
