x,y,z
0.00,0.00,0.00
0.00,0.00,0.00
2.81,0.38,-2.74
8.28,1.16,-5.60
8.91,-0.62,-6.93
8.28,1.19,-9.08
7.49,-0.96,-6.48
7.90,0.91,-7.16
9.24,-1.07,-7.06
8.70,1.53,-8.23
8.57,0.53,-6.22
8.53,3.53,-8.43
8.99,1.64,-7.38
13.00,1.34,-7.21
26.16,-3.24,-5.17
50.99,-10.82,-5.52
81.03,-35.65,-1.06
100.00,-63.59,2.28
88.48,-88.42,-0.16
28.13,-69.15,-4.42
-21.74,-54.60,-4.60
-70.14,-18.40,-11.16
-94.48,6.28,-8.10
-88.17,38.69,-10.74
-41.39,22.54,-3.13
-11.27,14.74,-3.30
7.58,4.46,-1.78
13.44,8.90,-7.97
15.18,6.47,-5.25
15.43,9.29,-11.17
13.55,12.16,-17.00
14.07,14.58,-26.70
14.85,21.23,-43.67
16.66,18.10,-68.14
16.82,9.86,-97.33
17.50,-22.39,-100.00
4.09,-51.15,-67.52
-5.01,-81.22,-29.34
-13.55,-94.54,17.45
-14.62,-100.00,60.02
-20.74,-82.98,74.66
-10.28,-67.81,54.10
-5.24,-58.89,31.93
-1.94,-55.51,10.19
-3.04,-55.65,-3.56
-2.19,-53.10,-11.66
-2.05,-56.44,-15.24
-2.88,-52.50,-19.51
0.00,0.00,0.00
0.00,0.00,0.00
