x,y,z
0.00,0.00,0.00
0.00,0.00,0.00
0.19,1.84,-0.56
-0.19,2.54,-0.53
-0.04,2.61,-1.07
0.02,3.07,-1.54
-0.47,3.10,-1.03
-1.13,3.49,-0.94
-0.68,2.46,-1.56
-0.97,2.85,-1.52
-0.39,3.10,-1.76
2.83,3.27,-2.91
12.02,1.64,-2.95
30.98,2.67,-7.85
53.92,-9.15,-3.90
82.70,-28.69,-7.88
100.00,-57.23,-3.46
94.23,-86.95,-0.85
46.04,-89.62,10.00
-7.78,-71.96,8.54
-57.20,-51.72,11.41
-90.73,-24.78,12.04
-98.06,3.59,10.24
-71.91,7.16,3.82
-42.65,4.09,0.21
-21.74,1.03,0.03
-10.25,0.68,-5.47
-2.80,0.23,-10.82
-4.03,8.43,-14.30
0.66,4.05,-28.81
-0.47,8.28,-45.83
-2.27,5.02,-67.42
-4.30,-10.38,-91.62
1.02,-40.48,-100.00
-12.13,-56.07,-81.70
-21.59,-81.11,-42.31
-26.18,-100.00,1.57
-30.61,-92.17,51.16
-36.58,-84.10,76.70
-32.13,-82.40,82.24
-28.21,-72.79,61.10
-25.28,-63.02,42.25
-25.79,-66.15,23.18
-22.25,-69.51,9.42
-19.88,-68.85,2.73
-18.58,-67.00,0.84
-18.51,-65.97,-3.05
-18.13,-66.09,-7.06
0.00,0.00,0.00
0.00,0.00,0.00
