x,y,z
-996,1264,17148
-616,1860,15536
-316,1860,15144
-1128,2060,15196
-624,1600,14760
-892,1616,14840
-452,2080,14928
-348,2140,14788
-356,2052,15172
-388,1668,14988
-660,1760,15056
-724,1656,15056
-680,1620,15176
-372,1720,15112
-784,1540,14736
-464,1616,14900
-300,1864,14884
-320,1748,14928
-476,1524,15008
-200,1696,14740
-232,1696,14792
-348,1548,14864
-184,1880,14616
-548,1768,14168
-100,1812,14756
-788,1468,14440
-1044,1500,14376
-1076,1496,14744
-936,1628,14948
-844,1424,14984
-340,1912,15760
-768,1432,15860
-752,1328,15124
-804,1396,15708
-1052,392,16212
-2072,-16,18888
192,728,22712
1372,720,25848
856,136,26024
1448,-548,27728
3732,-1344,29252
5512,-488,27012
4236,-980,24040
7740,340,21976
11208,2140,17816
11324,1636,13336
8236,1072,8536
7852,2172,3728
8888,3060,812
5116,76,-776
4724,-68,-3324
1948,368,-2960
-140,272,-4008
-2984,520,-2816
-3832,-172,-2444
-5132,-804,-2552
-11572,-1536,3024
-13152,-804,12904
-11860,172,21684
-12716,3432,26548
-15496,2468,30228
-16708,1284,29164
-14420,2264,25536
-9280,3692,23732
-5008,4852,20392
-3304,4188,18480
-3724,2752,16652
-3132,3440,13632
-3388,3284,13020
-2504,3080,13964
-3220,2276,13628
-3752,2076,12276
-3668,980,12624
-5444,388,10832
-5864,924,9940
-4224,2112,11884
-3264,2820,10104
-5864,1420,8024
-7636,0,5604
-5516,664,5728
-7560,-1956,3364
-14108,-6096,-2860
-15140,-4292,-3744
-9032,-2100,-1380
-8456,-1724,496
-10668,-5900,1128
-9456,-3896,5192
3924,2020,12628
8556,3412,23096
16116,-5400,29888
15256,-1204,32767
17456,5956,32767
15896,5788,32767
10868,4588,30308
10092,4784,26716
10284,7252,23064
8656,7212,20328
2196,2528,14812
-2088,-72,13664
3320,-528,15556
3528,24,15104
684,-1604,13936
36,-3376,13296
5460,-80,16968
5936,1720,16560
5940,1144,15464
7144,1176,16204
12760,2864,19736
16296,4972,18660
18560,4092,16100
21212,3528,19452
22252,704,22004
19232,-1740,13524
14684,-4148,12624
1784,-11108,12948
-9368,-12652,9836
-31416,-10632,16272
-32768,-18704,18092
-32768,-9564,11564
-23124,-2932,12316
-10916,1476,16440
-2116,1872,17640
524,1660,15160
1172,416,16056
1624,44,14916
-1200,-2292,13900
-592,-1252,15552
920,-552,15692
792,-292,14360
-872,-672,13968
232,-56,15616
1780,920,15988
760,28,14416
-1212,-1260,14692
176,-296,15244
1084,176,15400
772,-76,14704
-1016,-632,14196
-404,-1024,15936
-264,404,17468
-212,472,16972
