x,y,z
0.00,0.00,0.00
0.00,0.00,0.00
3.50,-3.94,-0.13
11.71,-6.74,-1.51
10.70,-7.39,-2.27
11.66,-7.98,-1.24
11.03,-8.45,-2.18
10.86,-8.71,-1.76
10.08,-8.93,-2.04
10.33,-8.66,1.39
10.16,-9.04,6.53
13.99,-9.15,21.82
27.85,-9.84,43.53
43.81,-10.88,46.98
57.88,-11.95,30.67
66.78,-10.97,-2.10
59.27,-15.25,-47.37
29.93,-19.41,-94.64
-4.81,-19.22,-100.00
-38.19,-19.64,-64.82
-63.29,-19.57,-21.19
-69.67,-13.82,13.06
-61.10,-8.08,36.20
-46.27,-6.22,31.36
-35.27,-7.75,5.83
-22.45,-5.45,-18.56
-21.59,-10.66,-38.89
-48.62,-28.20,-71.27
-69.08,-54.89,-98.55
-43.78,-71.97,-85.37
-11.39,-89.90,-49.74
21.31,-100.00,-5.87
70.71,-90.75,42.73
100.00,-75.46,77.51
91.14,-68.31,69.08
75.68,-66.02,41.20
68.83,-63.78,17.82
75.68,-63.40,10.47
77.39,-63.98,4.01
41.17,-75.09,-3.24
-13.87,-86.80,-7.83
-36.39,-82.99,-13.03
-54.00,-80.63,-15.86
-57.62,-77.28,-9.85
-27.79,-61.71,-3.12
15.03,-46.20,1.18
22.93,-45.60,2.11
19.87,-47.19,-2.31
0.00,0.00,0.00
0.00,0.00,0.00
