x,y,z
0.00,0.00,0.00
0.00,0.00,0.00
5.07,0.84,-1.78
8.79,-0.29,-5.08
7.92,-2.06,-5.61
8.75,-2.65,-5.11
9.68,-2.75,-5.40
9.77,-3.34,-5.61
11.04,-2.36,-5.21
10.92,-0.86,-2.04
10.65,-2.12,9.22
11.55,-3.15,26.71
19.99,-6.60,38.21
36.77,-5.95,31.84
55.24,-1.46,12.02
62.35,1.34,-21.78
51.44,-1.79,-65.96
29.40,-0.09,-100.00
-5.65,2.16,-91.12
-45.51,-2.81,-50.70
-68.14,-1.08,-16.83
-64.33,5.63,12.16
-56.37,8.44,31.82
-40.90,7.79,24.57
-19.42,11.59,-1.98
-7.09,10.13,-15.08
-5.85,9.82,-16.16
-5.49,11.01,-14.88
-12.13,0.87,-19.75
-45.01,-19.07,-48.78
-60.98,-40.17,-69.76
-40.16,-64.65,-62.33
-6.42,-87.50,-37.24
24.04,-94.21,-5.76
72.32,-85.26,37.74
97.67,-80.22,62.76
95.64,-71.73,54.91
91.46,-66.02,31.45
100.00,-61.25,1.77
97.26,-71.06,-11.45
39.51,-97.05,-8.50
-3.10,-100.00,-11.59
-29.91,-94.55,-10.68
-56.02,-93.03,-3.00
-66.15,-85.37,-1.23
-14.11,-54.63,-8.29
14.69,-47.39,-5.79
19.97,-49.72,-5.65
0.00,0.00,0.00
0.00,0.00,0.00
