x,y,z
0.00,0.00,0.00
0.00,0.00,0.00
-1.50,-1.63,-0.51
-1.79,-2.33,-0.65
-1.24,-1.96,-0.78
-0.83,-2.03,-0.96
-0.49,-2.31,-0.51
-0.61,-2.72,-1.44
-2.09,-3.81,-0.94
-2.32,-4.32,0.31
-1.80,-3.94,1.48
-0.58,-3.49,7.09
6.88,-3.92,23.77
15.73,-7.58,40.77
27.12,-10.13,44.03
40.81,-10.50,27.71
55.21,-3.56,-3.95
43.56,-5.96,-51.15
22.20,-5.63,-92.65
-0.94,-3.57,-95.85
-37.63,-9.45,-55.95
-72.06,-18.69,-16.64
-77.43,-15.25,13.20
-68.61,-11.35,36.83
-62.72,-11.08,32.46
-48.56,-8.71,1.06
-45.19,-12.29,-34.11
-58.41,-26.41,-65.59
-64.25,-47.01,-100.00
-42.96,-70.97,-89.47
-8.00,-88.13,-58.06
30.52,-93.24,-11.61
65.57,-86.12,34.28
81.45,-74.14,71.26
69.75,-62.50,61.41
56.33,-55.97,38.02
57.90,-56.78,14.00
80.31,-61.69,5.77
100.00,-70.71,6.24
77.47,-89.01,3.36
12.81,-100.00,-16.36
-18.84,-95.99,-15.51
-57.03,-92.94,-26.98
-78.05,-82.09,-30.40
-54.47,-57.76,-24.68
2.07,-39.92,-8.04
11.78,-40.99,-8.18
20.25,-38.92,-2.25
0.00,0.00,0.00
0.00,0.00,0.00
