x,y,z
1412,3796,13928
-348,3244,15076
244,2912,14612
172,3044,15020
416,2772,14384
364,3420,14444
196,2948,15820
208,3076,14888
360,3112,15240
292,2932,15168
68,3540,14856
456,2540,14976
156,2828,15564
-652,3308,15520
500,2936,13864
180,3244,15096
-300,3276,14808
-36,3196,14220
-252,2928,15236
-320,2956,15024
-576,2812,14676
-1236,2884,15104
-1468,3216,15192
-1724,2948,14260
-2220,2892,13936
-2752,3120,13736
-3152,2688,12996
-3244,3536,11992
-3640,3484,12388
-2444,2756,12896
-1148,1932,12008
104,1732,9976
-536,2776,12652
-944,2804,11548
-56,2224,9072
28,2236,11196
-328,2000,12040
296,2496,12176
1740,988,12452
2120,796,12600
2724,816,12532
3140,-492,13824
3020,-328,13084
3616,-48,12448
3572,-1080,15072
3624,-880,15640
4860,-2000,15344
3228,-2016,16552
2504,-2200,16036
3620,-2416,14948
4244,-3672,15632
4436,-2944,17552
4064,-3664,15628
4980,-5380,17128
4184,-5268,19764
4284,-4544,18300
4724,-5864,18120
4632,-5828,19388
3332,-5512,19544
3616,-7120,19344
1568,-5652,21648
728,-5376,22276
1412,-6544,21428
1312,-6796,20720
-444,-6268,22884
-2888,-5748,24404
-2612,-5000,21104
-2460,-5468,21624
-3808,-5032,20940
-4992,-4372,20672
-3764,-3980,17036
-3880,-4128,19892
-5140,-2972,17700
-3632,-1868,12904
-4680,-3408,15444
-5092,-2704,16860
-5372,-1828,15452
-4512,-2160,14836
-4556,-1112,12708
-4552,-712,13452
-3360,-668,12292
-1368,-888,9760
-1852,152,9720
-2240,436,11180
-136,-340,10108
528,148,8824
352,568,9228
-112,1760,11260
752,1060,11264
2060,696,9660
2232,1112,11612
4408,704,9700
3620,1396,8656
2108,2512,13220
3804,1196,14916
5256,980,14636
4684,828,16932
4288,1152,18836
4440,604,18296
5668,-188,17660
4580,-8,17624
2272,1948,14996
1744,1452,17400
2540,536,16048
2768,648,15536
2444,1056,15992
2196,1240,15708
1428,796,15388
924,1124,15396
776,1416,14204
624,1392,14804
740,884,15208
1280,464,14896
1268,844,14084
392,1252,15008
1008,956,15504
1632,520,14796
1404,624,15604
