x,y,z
-552,7532,12976
-944,7120,13376
-836,6668,13760
-688,6716,13712
-748,7220,13044
-316,6928,13572
-820,6828,13456
-984,7188,13120
-488,6728,13392
-244,6780,13612
-568,7080,13728
-616,7052,13596
-520,6700,13796
-728,7056,13896
-824,7432,13756
-404,6896,13260
-108,6524,13748
-704,6768,13748
-900,7104,12864
-1144,7108,13680
-560,6804,13572
-600,7160,13180
-432,6588,13464
-780,7000,13108
-864,6960,14604
-496,6776,13896
-816,6940,12456
-992,6904,12820
-2008,7124,12996
-2952,7756,12372
-2572,6984,13356
-2952,6668,13388
-2660,6912,11780
-2720,6436,11908
-3556,6916,12328
-3832,6624,11836
-4204,7156,10636
-4060,6360,11680
-3672,5728,11484
-3808,6828,8800
-3912,5964,9992
-4124,4288,10028
-1076,3680,3192
1144,3756,140
-1536,4312,9168
40,3552,10616
2808,2224,10460
4944,604,12924
6284,1008,12292
5516,1204,12336
5812,252,12448
6868,776,13016
7488,-1656,15796
5184,-648,17044
6604,-1636,16044
7188,-2412,16332
6236,-1908,18712
4960,-1244,21708
6980,-1792,17892
7544,-4252,18948
5988,-3312,22040
4216,-3012,22448
4912,-4064,21956
4912,-4880,22252
3808,-4296,21408
1928,-3384,22220
1612,-4872,22620
332,-4560,23140
-704,-3720,21312
-1908,-3704,21692
-5000,-2564,25788
-3376,-2984,21696
-3472,-3516,19796
-5412,-1756,21452
-6008,-2092,22440
-4496,-2648,18420
-5160,-1352,17076
-7028,-400,21424
-6604,-560,18248
-4300,-1260,14800
-4680,-364,14744
-5616,856,16704
-5592,1136,13836
-4416,1356,11228
-3696,1268,12704
-2812,1152,11152
-3220,2232,10204
-2412,2212,10956
-1060,1712,10092
-952,2616,9740
92,2912,9332
484,3072,11720
924,3360,10452
2652,3644,10276
4064,2460,10612
4024,3588,11088
4364,3360,12240
4472,3144,14124
4492,3128,14076
4684,3452,12988
3544,4312,16436
2716,3332,18472
2748,3828,15588
2644,3888,15688
2576,3456,16184
1024,4484,15124
1428,3904,14084
860,4396,13868
1152,4200,14060
1112,3364,15108
600,3748,14140
-256,4756,13976
796,3688,13948
108,4124,14260
-404,4492,14680
860,3980,13292
712,4624,14224
668,4720,14784
492,4044,14640
1116,3632,14360
