x,y,z
940,-300,22620
1160,-268,21900
1228,112,22228
-108,700,22204
200,488,22400
420,644,22764
332,592,22836
516,584,23056
1168,180,24204
1956,-220,25184
2512,-388,25308
3392,-924,26264
4636,-1560,27968
5392,-2312,27884
6344,-2472,26604
6512,-2328,26388
6812,-1732,24264
7808,-1072,21900
7528,-816,19180
5056,1000,17524
3392,1320,17188
2920,1664,16412
1908,2044,13932
196,2700,12684
288,2740,13012
-2152,2372,15032
-4300,3532,13852
-5688,4068,12936
-8892,5004,14804
-9564,4440,16348
-10320,4156,17900
-10528,3096,18088
-9828,2128,21260
-9048,1460,22200
-10388,984,23256
-9108,-80,25160
-7024,-796,26540
-6544,-1928,26400
-4072,-2928,26336
1784,-5208,27312
7176,-7164,27824
10064,-7484,27016
12252,-7120,28380
12380,-6748,30228
11988,-6684,31760
12684,-6288,32408
12280,-5992,29004
9876,-4692,27984
9412,-4792,27880
11036,-6184,25404
10584,-5380,22112
9496,-4300,19544
6640,-2152,16304
5748,-1128,14412
5868,-1336,13436
3864,-228,13340
2880,-64,12928
2864,252,12572
820,1676,12368
-2608,2628,12880
-2584,2248,12772
-2672,1560,11720
-6408,2164,12100
-10220,1536,14556
-10744,1532,17812
-7216,-1916,22184
-7332,-2176,22292
-10040,-2612,19668
-12972,-2868,22500
-13168,-4356,26100
-11196,-5000,26608
-8804,-6780,26344
-10244,-7464,27564
-8228,-8140,32208
-3060,-10768,29728
3828,-12984,25544
-2188,-9972,25128
2416,-12164,31212
10232,-15908,31912
9472,-13148,26392
7484,-11148,25748
4648,-8312,23536
3984,-7736,21788
1772,-6308,22252
-4,-5808,21844
308,-5696,20840
