x,y,z
-1924,-1492,21344
3320,-1016,23264
320,2632,21324
1608,1848,21900
3648,740,22016
2908,1104,21740
1336,1164,23312
-32,3528,23008
2784,540,21524
1980,1428,23352
2508,1588,23716
2024,2088,23036
1524,3304,21752
3712,1228,23640
5908,1120,24136
4336,2004,24148
2756,2516,25076
4244,2660,23720
5452,2320,23672
6816,1620,19992
6468,2372,20832
4172,2632,19800
3832,3868,19492
5300,2524,18084
3336,2040,19636
2260,3320,18204
3480,3260,18664
1324,3640,18144
-616,2964,20740
240,3208,17184
3576,2280,17868
408,2104,17564
-1456,2948,15752
-516,3192,17400
-2324,3700,19656
-4620,4064,20112
-5184,4400,20516
-4544,4308,22040
-3476,3012,22160
-1412,1884,21072
-2880,2432,21216
-5372,2924,25632
-4968,3296,23060
-1752,1172,22592
-2800,1780,23300
-5268,2836,23204
-4628,2068,24544
-2512,572,25396
-916,1156,25356
-484,1236,25512
-2752,820,27592
-3488,1396,29128
-1724,1192,26604
1300,72,25952
4436,-908,26840
8324,-2208,24640
12944,-3904,24164
13948,-3000,23000
12656,-1676,23780
9760,-1096,23520
7344,-60,23028
7040,432,23028
5176,956,22752
5352,680,23256
3644,628,22132
5144,-408,23288
6164,-808,22736
7660,-1276,23764
7852,-1140,21792
5464,388,21132
3876,980,20680
4968,544,22636
7076,-264,19988
4676,1380,20700
2544,2112,21916
3432,2376,19176
4816,1640,18804
4776,1800,17488
2524,2676,16860
1808,2432,19332
528,2196,19188
1892,1940,17264
3224,1384,18256
860,1732,18440
-1064,2464,17972
168,1708,19400
-348,1580,18004
-1372,2460,19480
-2472,1852,20272
-2544,1892,22128
-1488,1144,19132
-2564,1820,20568
-300,428,22324
-4756,2048,22676
-4608,536,22212
-3768,956,20612
-4052,180,26184
-4956,676,25260
-3988,-868,23744
-4404,-424,24084
-5160,596,25284
-4232,-712,25828
-5108,-1600,25376
-6392,-1208,24200
-3556,-1600,26136
-2636,-2072,25356
-576,-3236,27668
872,-3412,24636
4300,-4936,27664
8564,-6552,22988
10976,-6328,21900
10240,-5300,24460
9636,-4436,27000
8420,-3676,26748
7088,-3620,23964
5624,-3228,23256
5104,-3288,23460
3556,-2880,23464
1408,-3180,23784
-476,-3464,24212
