x,y,z
0.00,0.00,0.00
0.00,0.00,0.00
0.87,-0.44,1.09
-3.92,-2.56,5.72
-3.23,-2.41,4.26
-5.12,-2.53,4.14
-7.36,-2.83,4.27
-13.24,-3.30,4.70
-22.29,-3.11,0.21
-36.13,-3.38,-4.24
-46.78,-3.83,-9.07
-45.04,-6.44,-23.58
-41.99,-7.50,-37.07
-34.64,-9.34,-43.12
-15.28,-13.57,-43.83
7.31,-19.96,-42.16
20.87,-23.81,-34.97
38.86,-32.10,-20.37
50.27,-41.15,-7.99
59.78,-50.88,1.92
65.90,-60.83,10.97
68.51,-70.63,28.22
69.11,-80.20,39.52
67.23,-88.70,53.36
56.11,-95.16,69.17
32.31,-98.28,89.94
6.12,-100.00,99.00
-28.47,-96.86,100.00
-55.10,-91.04,92.94
-78.68,-84.23,75.79
-91.97,-75.49,51.49
-100.00,-65.56,27.61
-87.46,-57.85,-1.42
-73.36,-50.54,-24.40
-53.83,-42.01,-42.44
-29.70,-35.77,-55.44
2.79,-32.31,-64.39
17.42,-25.74,-53.76
40.68,-23.78,-38.59
56.43,-23.55,-12.13
66.95,-24.37,5.71
60.94,-24.32,23.90
61.38,-27.09,31.27
46.80,-27.00,30.06
32.17,-25.41,19.51
21.92,-25.42,13.26
16.07,-24.91,9.85
12.10,-25.86,8.78
0.00,0.00,0.00
0.00,0.00,0.00
