x,y,z
0.00,0.00,0.00
0.00,0.00,0.00
-13.34,-7.56,-3.60
-17.51,-11.25,-4.65
-13.78,-11.20,-3.05
-12.05,-11.65,-3.20
-7.80,-10.73,-3.67
-6.07,-11.68,-5.40
-6.83,-11.85,-3.43
-7.83,-12.22,4.79
-13.53,-12.03,23.06
-14.05,-14.02,45.20
-14.99,-20.65,65.35
-15.73,-37.39,61.69
-14.57,-39.48,24.25
-6.74,-30.02,-17.70
-9.37,-16.55,-51.44
-13.41,1.56,-74.06
-11.56,29.38,-76.27
-4.47,43.40,-52.19
3.40,42.48,-31.42
19.65,40.07,-34.13
56.45,37.03,-50.82
84.61,26.46,-67.93
100.00,-1.51,-71.56
88.03,-28.29,-54.99
32.61,-64.99,-16.05
-28.65,-87.45,24.64
-67.78,-100.00,54.65
-91.63,-94.01,63.93
-86.42,-86.47,50.21
-43.62,-68.92,26.96
-17.11,-64.52,10.74
-7.49,-63.11,13.56
-6.95,-66.82,38.04
-20.83,-81.43,63.60
-14.46,-96.48,65.95
-2.70,-94.46,27.49
-1.11,-76.76,-15.81
1.11,-49.75,-58.73
16.82,-9.20,-93.95
13.03,30.85,-100.00
4.00,52.00,-64.85
2.27,57.84,-34.77
7.26,60.20,-22.00
4.10,57.98,-11.94
2.51,56.98,-11.15
4.51,57.84,-15.32
0.00,0.00,0.00
0.00,0.00,0.00
