x,y,z
0.00,0.00,0.00
0.00,0.00,0.00
5.31,1.73,1.93
5.14,5.31,5.39
6.00,4.96,5.43
5.16,4.48,5.39
5.59,4.15,6.43
2.42,4.20,7.16
2.05,4.54,12.96
3.76,1.67,24.11
2.19,-1.29,41.16
1.57,-9.31,66.44
5.79,-26.07,90.21
10.24,-43.63,85.50
16.57,-49.61,51.50
19.17,-39.50,-1.77
17.39,-21.01,-47.49
21.38,13.82,-82.30
22.13,45.19,-88.95
27.09,67.69,-73.96
46.30,75.09,-58.34
69.13,74.80,-64.66
89.44,64.20,-84.55
100.00,35.63,-100.00
84.97,-4.32,-89.35
39.53,-47.47,-42.78
-6.12,-80.54,9.26
-40.97,-100.00,50.65
-59.54,-94.84,77.93
-61.70,-77.48,77.49
-37.08,-58.30,52.04
-10.05,-43.88,29.50
4.06,-38.22,22.93
6.35,-37.85,33.79
5.52,-41.03,55.48
-0.10,-52.56,80.93
-10.51,-68.75,85.53
0.64,-71.77,59.88
0.57,-63.41,16.16
2.46,-43.44,-28.86
9.22,-9.75,-69.17
20.13,29.95,-85.69
2.12,55.16,-69.55
5.30,70.35,-45.21
5.91,76.13,-23.87
6.39,80.00,-11.27
1.25,79.37,-3.55
6.26,83.91,-3.33
0.00,0.00,0.00
0.00,0.00,0.00
