x,y,z
0.00,0.00,0.00
0.00,0.00,0.00
2.10,0.40,0.37
-0.26,1.13,0.28
1.49,1.20,0.09
2.05,-0.09,0.28
5.27,-0.72,-0.98
5.48,-4.14,2.40
8.86,5.92,18.00
16.17,13.67,44.15
27.55,11.35,62.36
31.26,6.33,78.04
47.40,-3.16,78.94
44.23,-36.56,46.89
38.38,-50.92,-3.37
16.70,-44.33,-41.32
16.50,-18.28,-76.47
2.61,15.92,-91.34
4.83,59.04,-79.52
11.92,84.42,-59.87
36.61,87.65,-48.86
55.02,77.78,-52.00
78.95,59.82,-60.44
100.00,34.23,-67.96
91.62,14.95,-75.57
83.83,14.02,-65.37
49.26,3.27,-24.22
-3.21,3.76,17.32
-45.38,15.14,53.95
-58.01,20.76,75.64
-67.30,12.49,75.36
-59.57,7.98,54.77
-32.36,-0.74,33.64
-11.83,-8.75,13.25
-4.29,-15.32,16.99
-14.08,-16.68,39.13
-25.83,-28.59,67.82
-20.70,-47.57,86.89
-19.76,-70.74,80.05
-1.73,-82.90,43.26
13.81,-82.03,-9.84
30.96,-57.26,-57.21
28.13,-14.34,-94.14
35.69,31.53,-100.00
26.73,64.98,-81.10
26.15,88.34,-56.30
26.19,100.00,-36.48
26.03,98.04,-20.74
0.00,0.00,0.00
0.00,0.00,0.00
