x,y,z
1160,-64,15280
880,88,15276
720,116,15944
628,20,15888
1064,64,15488
1120,488,14820
732,424,15808
968,428,15224
892,16,15284
844,320,15316
876,232,15316
896,-4,15308
776,256,15448
1488,76,14468
540,544,15584
892,-4,15364
156,964,15320
1180,-364,14764
1280,108,14828
636,268,15320
860,612,15668
1440,268,14980
3308,188,13028
3040,856,15676
6112,-364,16052
11276,628,13432
15952,224,10680
16888,-2744,16404
19020,-5124,19384
23648,-7280,12308
23776,-8068,11224
18356,-10536,17880
10592,-13128,19244
2784,-12204,17416
-12316,-5176,18372
-25584,1028,20376
-24716,3168,18032
-21540,2044,16640
-15660,708,14516
-9904,148,12472
-9404,-124,19420
-5252,-1244,17820
-1060,-276,14916
-892,512,14444
-1688,724,14300
-824,1572,14488
1312,152,13716
1588,-788,14096
-2296,1472,15768
808,-1520,12848
4632,-2020,11196
-72,1912,12212
-2144,3944,11476
496,-88,9064
3784,-444,284
2004,924,-1288
-620,1256,816
-2124,-2496,-2504
-1304,1284,-8528
1676,-7292,-8764
160,-7000,9964
2720,-8920,2260
-2104,-7768,7648
-13412,-5484,29764
-7724,-7884,32767
-2104,-14804,32767
-5792,-8808,32767
-5200,-1976,32767
-32,-4940,32767
-3456,-4324,28492
-1400,-6248,21676
-3756,-6084,22548
-3464,-5776,19836
-3668,-5132,14272
-2764,-6172,14692
-3520,-4700,18552
-3484,-4804,18784
380,-5988,12708
248,-6516,14132
-2296,-5356,17352
-1768,-5888,16424
-2040,-5460,14716
-3160,-3584,12388
-3416,-4412,13388
-2440,-6168,14644
-1920,-5240,13440
