x,y,z
724,1176,14196
1632,1452,15264
1344,1228,15336
-580,948,14952
-316,1292,15028
1328,1368,15456
776,1344,15104
-244,1264,14564
-32,1540,14984
1220,996,15968
560,1100,15392
-364,1228,15228
-256,1164,15352
1132,1208,15380
636,1176,14824
1004,760,15152
1096,816,15780
-184,1148,15032
264,1224,15216
148,984,15848
-632,864,15180
416,1412,14772
-104,1224,14904
364,1312,15160
-328,924,14656
-48,1212,14108
872,1356,13560
3764,1452,13884
3312,1176,13652
2540,1288,13984
5184,976,14320
6880,1224,15356
7112,1000,14500
10220,1772,15088
16496,1504,17228
16468,668,17484
19512,720,17228
22660,-1700,16640
21644,-708,12036
16604,-2760,13688
13016,-6836,16904
10336,-8120,16036
1348,-9504,15480
-6204,-12220,17084
-16312,-13236,19088
-25648,-12004,19256
-29760,-7824,18780
-23840,-3272,19940
-14600,-248,18308
-2512,1188,16960
-152,724,18976
200,912,15208
1448,964,12820
4184,1836,12924
2112,636,13780
68,1760,13152
3904,2528,13156
2768,1432,14392
500,1380,14588
4444,1980,14880
2792,1428,14652
1140,1336,13172
1584,1428,12812
-1320,-20,14284
1244,2340,10792
6308,2880,7736
848,1864,9448
1460,456,7628
1884,-400,7380
1996,572,2696
1796,-248,532
-4276,-1584,300
-4312,-2540,3228
124,-1992,-508
2316,-1020,-3168
-364,-3236,636
2284,-4248,4140
3776,-5116,1932
6820,-8980,2880
8664,-9824,9192
6236,-11400,22580
-324,-6184,32767
8500,-1832,32767
10476,3028,32767
3904,4172,32767
672,2212,32767
3800,-1956,30940
5784,-988,25976
4604,-2184,26344
4728,-3700,24600
2036,-2020,20464
1580,-2992,20488
4440,-2948,18852
6020,-1660,17596
4424,-2032,17612
908,-2792,16364
840,-2928,16008
732,-2576,15624
-240,-2744,14980
2744,-1648,14236
3472,-2296,15504
68,-3516,14708
2288,-3216,13136
3864,-2784,13092
1936,-3476,15104
