x,y,z
-23196,3984,23748
-8,1512,15008
352,1716,15280
244,1088,14952
-240,1332,14896
356,1396,14956
684,1548,15288
216,1124,15324
-64,1248,15252
496,1220,15488
140,1016,15392
-16,1092,15180
-100,1092,15028
332,1260,15232
-12,1164,14484
-644,1004,14864
-144,976,15104
172,1200,15392
12,1072,14968
460,1228,15000
-164,932,15004
-224,1016,14964
928,1500,15104
1076,1168,14980
-44,1144,14768
176,1424,15584
2416,1812,14652
1296,1200,13524
-1564,788,13396
1288,1396,14156
2392,1376,15752
2760,344,17168
5512,8,16024
7640,872,14704
11520,1216,15608
18252,396,16056
20304,-328,13432
15552,-520,14256
21424,3236,14640
26964,-1220,15912
16108,-5912,18608
6820,-5212,19176
5316,-7948,19188
-6928,-13124,21276
-24608,-13248,19120
-28164,-9776,18960
-28264,-6252,16000
-23852,-2872,16232
-13132,588,15056
-4900,2532,14452
-2720,1584,12696
-3076,1960,13244
1456,2480,13820
1368,1536,15520
-500,1356,13896
1896,1800,13708
1060,1484,15488
676,528,15012
708,1192,14320
3884,3156,13260
4868,1280,15244
-68,-184,16692
1520,2312,13412
5136,1556,15616
4232,-1076,14764
-2060,-3428,10320
2620,1068,4408
5528,-412,5292
2276,-1008,4492
-212,404,348
3548,2620,-884
4772,3992,2028
3216,2648,1956
-1436,-1680,720
-4752,-4436,-3028
-484,-2504,-880
1240,-7492,4196
592,-8540,6892
-2024,-11136,11808
3924,-10672,21200
5956,-2852,29864
7688,-2340,32767
5924,-2672,32767
3648,7596,32767
352,9528,32767
-5232,4248,32767
-3904,1220,28284
4572,1304,24284
8520,1768,19032
3220,-424,19164
748,-2524,18280
156,-2696,18692
-1008,-3604,17240
284,-2436,15848
4500,-1128,16328
