x,y,z
-2356,6500,19176
2068,1124,23168
2104,1168,22124
-260,2032,21760
-656,1668,21480
1348,1708,23308
3156,1040,22924
2168,568,21484
500,2124,21232
3068,972,22564
4284,704,23080
5308,120,23248
3816,2236,22132
4652,1076,22200
4664,2212,21372
7064,980,23492
8040,408,23300
8140,-412,22132
7180,308,22480
6848,644,24920
7616,128,25016
4820,912,21296
4940,660,21464
5800,988,20996
5516,820,22192
4504,-148,22636
3900,492,20284
4160,896,21552
3820,684,21752
3320,668,21856
3268,936,21828
2572,1176,21852
168,1208,20736
-4,1256,21516
1828,1176,22824
-3252,1316,22328
-5788,1900,21712
-3308,2012,22784
-3256,1668,21472
-4144,2340,20668
-4416,2952,21832
-4120,3192,21024
-1916,2588,21536
-1280,2800,21156
-2304,3220,19468
-1952,3264,20852
-1016,3360,21204
1308,2236,19572
268,2400,17560
1316,1740,17532
1352,2508,17172
2764,1624,16068
2044,1824,15384
2528,896,12964
1396,924,9276
-436,1096,6844
580,996,6688
3296,-1172,13104
4592,-1496,16020
624,-816,15432
-2856,-672,13268
-1888,-2056,22772
4864,-6164,26872
4152,-7072,24364
272,-6300,24104
-3944,-4348,32767
2272,-6712,31288
408,-3644,22320
-9668,328,32767
-4128,-788,32767
3120,-4328,32767
2392,-2340,28460
1832,-2944,31452
1780,-3124,29192
2276,-2280,25484
2748,-3132,25920
-452,-3004,24636
-1532,-2412,23784
2472,-4448,23508
