x,y,z
1384,400,14676
1156,796,15288
848,872,15276
320,256,15276
404,640,14988
200,572,15644
988,888,16240
900,852,15648
-24,1024,15140
376,668,15288
1120,740,15436
768,984,15244
772,772,15016
1452,832,14468
1120,892,14556
1436,1024,14708
1264,948,14600
792,724,14788
260,668,14648
888,484,14520
768,924,14248
184,456,14444
-516,528,15756
1332,72,16216
632,4,14952
1660,0,15052
8524,968,18040
19248,1852,17628
20732,1908,17648
21596,600,17336
22596,-180,16768
19688,-968,17056
15224,-3036,19084
12040,-5756,16804
4084,-6908,14420
-2980,-8016,14232
-10440,-9844,15548
-23932,-10360,18272
-27000,-8676,17860
-24304,-4208,15872
-15900,-816,13268
-6788,156,13704
-3996,1340,14968
-876,1296,13676
-52,1676,13836
2260,2296,14248
704,1256,14552
-100,1532,14364
712,2420,12808
1712,2196,14872
3112,1756,14732
232,1324,12924
68,1632,9756
2012,356,9568
3176,-704,4144
5372,948,-4236
-792,-60,-11764
2896,-2000,-12004
1388,-3600,-9704
452,-6376,-7168
-1372,-5728,-6664
1280,-8872,-2424
8672,-16076,6848
5108,-19160,21520
-976,-21432,32767
-4788,-16452,32767
112,-8548,32767
-2580,-6388,32767
1368,-5052,32767
7652,-1560,25188
7756,-2296,24612
5884,-3284,23464
604,-4600,20068
1316,-4048,16848
180,-5684,17696
1380,-6384,17876
1108,-5376,17696
2460,-4820,15844
2464,-6504,15488
1628,-5420,16156
1048,-5620,15416
1440,-5144,11772
