x,y,z
-2380,-9348,17736
232,2272,21732
1748,1724,23152
1436,1856,22268
328,2012,22004
1428,1844,22800
3800,932,22196
5580,1312,22016
5540,1424,21572
7380,1112,21276
12908,-772,21184
15224,-820,22744
15920,-1252,23068
12852,-1608,22108
10748,-960,23300
11832,-2380,24756
9576,-3032,23344
5872,-3000,22996
3672,-2952,22924
5848,-4660,21576
2192,-4572,21568
-5548,-2968,21008
-7624,-2292,22612
-8948,-1932,23540
-14860,588,23652
-18692,2780,21900
-16756,3760,20992
-9604,2988,22864
-5052,744,21056
-8836,2596,19628
-9996,3480,23084
-2916,1760,22924
564,856,21968
-4024,2332,20412
-3364,2568,19808
1020,1740,19284
1856,1636,16544
464,1648,17456
524,1920,14376
872,2028,13524
4056,-96,11264
2372,-192,11608
1188,-244,11868
1664,-2076,12672
312,-1636,11424
1152,-3304,9688
1468,-4292,11132
-756,-5916,13080
-60,-7632,15432
3624,-11196,20848
1428,-13036,25368
-504,-12712,32516
2576,-13916,32767
1828,-13544,32767
-1668,-11064,32767
572,-10652,32767
1412,-11720,32767
928,-10936,30572
-3268,-8068,24920
516,-8680,23836
3320,-11400,23464
808,-7552,19776
-3192,-7460,19096
-2916,-7860,22368
1792,-10180,23720
4160,-9476,20272
2600,-9000,18684
