x,y,z
-768,1112,16360
1404,492,14064
2408,-736,14004
928,-604,16748
1004,-296,14704
336,1972,14472
160,744,16196
924,-820,16292
416,-80,15820
664,28,14708
836,656,14028
400,796,14716
-32,116,16132
660,200,14644
336,912,14708
324,340,15084
292,80,15680
876,-96,14948
524,68,14344
-244,656,15788
268,76,15368
360,428,15428
92,416,15752
804,-232,15112
1380,-460,15340
804,432,15396
1284,1480,12804
2900,188,13160
1844,-1776,20756
4584,-352,16272
8712,-1260,11336
9868,-2168,15032
9344,-1176,16956
11184,-2784,15900
12620,-3936,17588
14156,-3404,16816
16904,-5096,14928
16388,-9544,18144
11704,-8288,21920
11368,-10056,17640
2284,-12904,20472
-14964,-2328,20820
-17500,1936,3188
-27604,5904,16176
-30996,6720,19632
-21884,8604,13012
-8856,16,12396
-6376,-672,19164
-3364,-68,17184
588,1244,12404
2216,-100,13908
-476,1848,16932
320,2648,14008
3180,-60,14948
4132,-1068,14804
2368,660,15764
780,2596,11864
1944,904,12324
3352,-1884,13720
1432,1400,8972
-1120,3348,10808
1736,-868,11560
2904,-3596,7996
4380,-940,-3092
3736,-1144,-2244
-2308,-1332,13184
972,-1804,4340
4348,-1804,-11044
5836,-956,-10364
-712,1640,5904
-2856,1836,8872
32,-4036,-4852
-996,-8616,1068
-10928,-8604,28732
-13224,-4672,32767
-3108,-9864,32767
4184,-5528,32767
-1744,-1124,32767
-3452,-2024,28176
-2192,-2440,23292
-2080,-2136,19336
-4968,256,20420
-5588,-2092,21944
-4960,-2192,17584
-3452,-1012,13956
-1596,-2508,15640
-1696,-3996,20040
468,-5568,17244
544,-5808,14004
-1140,-2996,14416
-2876,-1472,16752
-1080,-4244,14324
-1936,-3292,14964
-2472,-2780,14000
-312,-5508,13356
-832,-3524,12576
-3044,-2848,14632
-3436,-2636,17000
