x,y,z
7808,1580,8496
1348,-1160,14828
1308,-376,15272
1192,-232,15420
1668,-1148,14640
1576,-888,14460
484,-620,15764
252,-448,16576
820,-860,15252
1260,-1488,14776
836,-1408,15268
1284,-916,15636
732,-820,15508
492,-632,15228
856,-1296,14200
1700,-1484,14348
912,-836,14920
908,-928,15204
832,-1216,14204
1164,-1192,14156
160,-848,16244
84,28,15400
976,-1452,15428
1156,-2032,16052
656,-2272,16888
-348,-1288,19788
1572,-3652,19708
2892,-4784,20816
1504,-3520,23216
1240,-2812,22516
-148,-1776,26296
1920,-3616,25968
1584,-2572,25132
-1196,-1272,28800
1672,-7020,31532
1156,-3724,32288
2248,-4716,26168
2292,-4264,28572
2268,-7292,26236
2136,-9592,23064
-1444,-6484,15320
-764,-6332,3156
2604,-6728,-7236
3872,-5756,-9224
112,620,-8444
-1680,1340,-4492
-3152,2600,1956
2892,-444,-8
4656,-1044,4680
3268,556,7664
2452,2244,8252
1976,3268,10668
2664,916,13056
-564,5056,12540
2456,3944,10748
3932,236,14540
2132,-332,15672
2256,2312,10712
3364,2080,10916
6292,-1224,11488
5844,812,9676
7676,1156,4684
8604,-1140,5844
9424,-3204,5932
8620,188,1524
10252,-1424,840
7980,-2188,4824
9200,-2012,6244
11376,-4160,1032
9632,-2988,8348
6176,-6288,9732
3052,-7700,9440
-5320,-7196,21080
-7588,-9504,18976
-12852,-5848,30556
-15072,-4292,32767
-7460,-6836,32767
-7296,-2252,32767
-8848,1028,32572
-7824,-880,27248
-4468,-1916,22876
-1280,-3676,14804
-1616,-3524,16884
-3096,-3404,19104
-260,-4140,14540
1364,-4816,13316
-2192,-2596,17300
-1472,-3964,18708
1656,-5508,15672
-280,-4688,15968
-2040,-4040,19348
840,-5928,20692
240,-5372,20484
-1464,-3104,21224
-2152,-4312,24492
1140,-5816,24256
-716,-5772,27440
-3924,-4320,29836
-1976,-4008,32767
4116,-7348,32767
-392,-10292,32767
-3264,-15096,32767
532,-20892,32767
2828,-22428,22348
-2480,-16628,9228
-7036,-7152,-4380
-1628,-10320,-11792
-152,-7532,-19316
-304,872,-19804
-804,2996,-11968
-252,3540,-6188
792,4824,-764
4768,1320,776
2352,2428,10692
344,5584,12712
872,7772,8444
-96,5568,13176
-28,3552,16092
500,4988,12080
396,5928,13380
-928,4056,17356
720,3348,15280
2544,3120,13888
1488,3760,13536
264,5032,14012
856,4624,14208
628,3232,16920
-1480,5240,15272
36,5412,14940
2028,3624,14112
708,3124,16136
