x,y,z
-2084,-1748,14940
-1476,-1148,14940
-1040,-924,15028
-540,-964,14924
-612,-1220,15464
-992,-1192,15272
-1288,-1188,14776
-1440,-1228,15392
-788,-852,15144
-700,-788,15116
-1328,-1252,14952
-1412,-1364,15032
-700,-1120,14816
-484,-1000,15040
-676,-1140,15152
-1260,-1332,14876
-1012,-904,14756
-580,-940,15636
-756,-1160,15244
-1516,-1428,15484
-816,-984,16928
-792,-1084,18240
-2760,-788,19012
-3208,-400,20716
-1188,-44,21448
-608,736,21916
-2876,-1160,24692
-4964,-2060,24444
664,844,24012
2568,-244,26548
-5444,-4548,28304
-7336,-7044,25712
-104,-5240,24536
3072,-3924,22772
-560,-4552,21700
-1664,-7588,20732
824,-8468,21616
1488,-9392,19416
-912,-8784,12776
-228,-5728,1564
880,-3172,-3648
276,-3092,-1964
-2404,-1708,-4520
-608,3104,-5724
1612,2156,-204
-836,2016,2972
-12,3204,4408
2056,3024,8072
4068,3112,10988
112,1420,12944
-1536,180,13344
3780,1476,15376
1496,2288,14220
56,788,14372
3672,744,14432
6736,1008,12580
3156,96,8268
3788,760,5640
8708,2532,5260
9812,2192,4104
6404,-124,5512
11048,-928,3664
13112,-300,7040
6868,-4800,9768
3576,-5712,8232
9548,-1944,-3688
5340,-3644,9728
-2072,-4764,13020
-2784,-64,16752
4652,-1640,16072
-2320,-9352,19120
-13376,-16704,20560
-14244,-15524,20236
-12544,-11036,30904
-13836,-12480,32767
-10892,-8944,28804
-4708,-5440,25092
-4392,-6464,25488
-4328,-6716,25224
-3684,-7392,20948
-3536,-5624,18556
-2716,-6168,15924
-864,-5452,16448
828,-5548,15888
-1832,-6248,14444
-4172,-6392,14968
-1024,-6556,17756
1172,-6656,19708
-2084,-7048,18216
-2332,-6144,17768
-312,-5588,22240
360,-6304,25188
-2300,-6704,25472
-4188,-6708,25512
-1104,-7020,27636
1140,-6484,27940
-2572,-6756,26964
-5240,-8912,27560
-784,-8560,28156
-1392,-10888,25292
-7772,-11836,19172
-3080,-9808,14924
1744,-7344,10228
-876,-6500,4664
1300,-3772,260
2376,-464,-2980
-380,-560,-4336
-1020,1092,-4952
372,2560,-4760
436,3748,-1548
-1204,3952,3016
264,5184,6532
5128,6744,7804
464,4504,9828
-2312,4580,12828
2100,4880,13544
1864,5156,13500
-212,4368,14200
-1476,3868,15808
1944,4708,15372
408,4476,13544
-3528,3412,13700
-2232,3276,13144
1432,4476,14508
876,4464,14432
-1640,4008,14736
-1916,3496,15736
-1072,3648,15888
-776,3960,15100
-2016,3976,15540
-996,3748,15736
-252,3472,15792
-964,4096,15668
