x,y,z
-596,24,15372
-1076,-40,15340
-1024,-148,15216
-680,108,15252
-720,132,15444
-640,-68,15392
-668,-172,14972
-572,144,15372
-488,212,15160
-648,132,15204
-492,-52,15048
-488,44,14816
-204,160,14888
-336,-104,15308
-116,48,14928
-396,-96,15096
-832,-136,15032
-764,-188,14884
-60,144,15324
-628,-256,15632
-732,-224,15192
-652,48,15228
-544,168,15428
124,296,15332
108,252,15088
-616,-140,15032
-648,-272,14768
-104,-336,15196
-344,-312,14972
-728,-384,15760
-672,-440,15428
-976,-384,15020
-12,236,16100
-580,-336,16872
-792,296,17492
292,580,20096
516,544,23924
-2552,-604,24948
-3664,-300,24384
536,848,28812
2460,-464,32767
-3052,-5560,32767
-5636,-7304,31748
-3564,-6612,29064
-3632,-8068,25412
-4256,-8320,21768
-3452,-8604,16396
3036,-6016,8880
3728,-4296,392
636,-2672,-5392
176,-340,-5852
1440,2224,-6092
-956,3160,-3932
1660,4552,-524
2028,4680,3308
1168,5216,6464
92,5336,7756
3120,6440,9896
4312,5212,13792
776,4708,13204
1072,4856,14592
2520,4560,13996
1944,4004,12572
2772,4556,9804
4000,3700,8272
6444,3232,7736
7960,5216,3800
11532,5944,3620
11672,3764,2128
7984,1804,36
9476,700,-4220
8952,1980,-1536
5628,-3364,7848
896,-5536,11588
5276,-4916,8132
5576,-4304,15564
3400,-8772,24012
-4056,-10256,26840
-8544,-9232,27524
-11184,-10320,31596
-13700,-7768,30928
-11304,-7132,31084
-7368,-4980,27964
-8536,-4564,25444
-6348,-3816,21364
-5148,-3472,21840
-2884,-3956,19764
-5200,-4112,15460
-2196,-2808,14936
1628,-2592,16340
260,-3184,15164
-2140,-3412,14144
160,-3492,13708
2316,-2688,14532
368,-3388,15944
-1040,-4164,19912
316,-3256,22348
1504,-2548,24932
-776,-2384,28260
404,-3772,32767
-128,-5332,32767
-4660,-6292,32767
-2892,-6824,31688
-2868,-7352,30460
-7028,-9744,28232
-5456,-10448,19320
4184,-6928,11744
6884,-4272,3348
4624,-3492,-4692
5904,1332,-9960
-568,2244,-7832
-1184,2872,-5148
-1492,4892,-2736
1152,7028,2252
3884,6704,5916
2432,7448,5212
-172,7476,7984
2844,9044,7908
2900,8076,10448
72,6792,12632
-712,6568,12996
1200,7788,12148
1604,7504,12840
-240,6496,14296
-872,6684,14380
176,6548,14252
1284,7424,13572
-996,6628,11656
-1268,6324,13276
