x,y,z
848,-908,15832
1104,172,15136
416,320,15004
808,384,15904
1404,-416,15484
1332,-352,15340
1000,-512,15112
1064,-384,15080
772,-484,15472
1432,-256,15208
1288,-428,15316
928,-680,15140
780,-532,15292
772,-224,14792
1508,-32,14652
1612,-296,15224
632,-324,15268
812,-428,15612
1592,-376,16404
1640,-312,16632
1864,620,17412
1432,1324,19268
2204,572,22084
2488,712,23512
2188,1604,24400
3216,1624,26904
4492,576,29096
-300,508,31600
-1468,-1104,32767
-8336,-3828,32148
-3500,-3252,30492
6668,-2460,28576
7964,-4604,26004
-2016,-8644,23864
-936,-10884,20092
6400,-9072,11952
8456,-6356,3664
-544,-5508,-2068
-2596,-5524,-3644
6064,-368,-7948
884,2200,-8812
-4004,2436,-6596
-2768,3852,-620
4832,6684,-336
4368,7092,4564
944,6328,8624
1316,5360,10028
1552,5148,11948
4068,5772,12416
2924,5888,12604
-1128,4236,13764
3396,4864,11312
7476,5980,5292
7820,5404,6088
9064,2884,9732
9376,1864,6260
5280,1620,-264
7200,3644,-3076
13836,2392,1848
11516,-1288,5244
5356,-2416,2612
7512,8,1328
12184,-5668,8972
6788,-6672,13208
-4016,-5928,10964
952,-5180,10180
-2128,-9952,11472
-9680,-7020,18516
-12616,-8156,32767
-11220,-10036,32767
-12792,-6100,32767
-11976,-4636,32767
-8184,-5376,31728
-4148,-6116,27848
-2348,-4388,25600
-3432,-4352,22372
-5896,-5908,20912
-2044,-5428,19864
1628,-4120,15552
136,-4372,14776
-1788,-5160,15424
4,-5008,16580
2688,-4112,14476
2180,-4648,15584
-680,-5524,17060
-24,-5432,19236
1436,-4968,20236
212,-4808,21756
1148,-4604,25588
1164,-5108,29172
-2440,-5452,30256
-4212,-5240,32528
3888,-5860,32767
2800,-8044,32767
-3268,-9484,30340
2988,-8592,28188
7464,-11020,29652
-312,-13308,27348
-3004,-14420,21380
2760,-12332,15556
960,-11376,7844
-1528,-9136,-1228
6036,-5636,-7492
5220,-1056,-11732
-924,624,-9636
1516,1880,-8168
2344,5820,-5716
2016,5148,448
1756,6212,-40
1264,7900,2776
4236,7488,9692
5552,5936,11972
1740,6652,10672
-548,6240,12520
2452,6052,14540
1848,5448,14708
848,5800,13756
1124,6516,13796
2032,5872,15324
1904,6048,13604
-2460,5948,15828
-1368,5160,12940
3044,7048,11316
