x,y,z
2676,3364,13968
-92,152,15812
-168,1316,16112
-276,980,16012
304,1656,15156
328,1236,14812
-40,748,15260
-236,720,16100
-12,892,14852
-168,1632,15516
-164,968,15780
-632,1380,15544
472,1132,14696
68,1016,15684
-540,1308,15684
-168,1868,14708
460,1052,15164
128,964,16204
148,988,14932
52,1552,14368
-424,1356,14488
-968,1320,14604
-1088,936,13436
-3524,1148,11224
-5224,2116,8272
-6928,2332,7848
-8536,2900,7076
-8596,2612,7444
-8208,2564,6012
-7944,1288,8576
-6432,1032,7312
-3972,-836,9140
-3200,-888,15648
-2208,-1012,16672
2968,-2008,15024
5688,-3316,20744
6820,-3116,25232
8612,-3612,26408
10300,-5084,27268
8572,-2492,23152
6000,-1020,21424
3536,-1720,22772
2784,-1440,19784
1412,-780,17384
-72,316,15800
-824,-500,16240
868,-1520,14916
-384,-968,15884
-1044,72,15240
180,-144,15096
828,-884,15792
1408,-80,16516
3056,-60,15912
7524,-1972,16636
9004,-1420,16156
10500,-1832,15452
12308,-4172,15984
12156,-6016,15448
10016,-4760,14196
2800,-3136,16340
-4240,-724,16304
-8916,-384,17772
-11784,2264,13872
-13320,4092,11616
-11460,2664,15704
-9448,1776,16344
-6896,1584,15268
-3508,884,16604
-1552,864,15108
-1172,1012,16036
-48,400,15916
340,724,15564
308,1356,15348
504,1084,15428
704,596,14144
960,292,13980
756,256,12876
440,1172,9976
288,648,9916
1116,192,10392
1972,-448,9372
972,1232,4232
-836,1468,3996
360,-120,4776
2412,-2420,4536
584,-1820,2364
-592,-1380,5572
-2628,-1872,14320
-2916,-2332,20816
-1516,-2380,26592
-796,-2800,28632
-1112,-3304,30300
700,-3896,27404
1096,-4452,22788
-840,-2068,21832
-1800,-1224,21552
-1456,-1896,20560
-408,-2156,20272
1140,-2456,18268
1088,-3132,15864
-1972,-1124,16376
-1492,-1724,15132
-1120,-2604,14640
-76,-3508,14424
44,-3768,14264
-1232,-2764,14720
-1248,-3120,16356
-96,-2896,16308
952,-3684,15152
-92,-3172,15708
-1148,-2244,15652
-92,-3016,15040
176,-3220,15260
-356,-2888,15720
-1248,-1976,16212
