x,y,z
952,1368,15320
1324,1032,14996
888,788,15956
-176,1120,15820
-8,1572,14908
856,1144,14740
672,1040,15740
760,636,16176
224,1340,15596
712,1100,14952
412,904,15132
280,1300,15740
1268,904,14724
552,1436,14736
708,1368,14628
376,1224,15460
284,1164,15868
860,732,15284
140,1536,15268
884,1084,15256
424,836,16160
276,1236,15412
324,1336,15340
48,1468,15252
188,1580,14764
688,1568,14800
396,1264,15308
68,1472,15348
588,1448,15016
776,940,14488
-640,1456,15524
-1268,1308,14852
-1016,468,13016
-2272,592,13312
-3796,592,12088
-5236,1124,7508
-5636,2936,5656
-6404,2540,7988
-6816,1640,10236
-4084,-360,10416
-776,-952,10328
-972,-1148,13456
660,-836,15360
3348,208,13448
2384,488,16632
4592,68,16944
5492,-464,19616
6044,-2036,21492
5076,-1912,22652
4216,-1276,23492
5356,-1724,21292
4300,-1412,21352
3444,-1232,20196
3036,-764,16976
1916,-8,16240
1284,-528,15968
380,-396,16652
1740,-876,15264
1896,-216,14244
536,-124,16088
1372,-576,15632
1320,484,15240
2520,336,15224
4080,-636,16212
4892,-692,16624
6188,-584,16060
6944,-464,15928
7472,-1192,15796
8180,-1864,15516
6564,-1604,15768
4500,-1652,16056
2712,-1228,16000
1960,-2204,14532
-2424,-228,15188
-6092,1604,15232
-5704,1756,14420
-4840,1416,12900
-5552,1520,15692
-4080,1276,13988
-3416,1436,14592
-2244,1288,14688
-2652,1316,15596
-1284,1024,15320
240,608,14972
628,28,15444
-112,476,16008
312,1232,15796
1576,640,14592
164,1244,16128
900,348,16472
872,1360,14356
1032,1200,14544
996,560,14840
1804,-300,12696
852,496,11360
1436,1372,8116
1464,388,8296
260,236,7812
-4,956,6208
60,716,4152
-176,-216,5516
664,-1596,7216
-248,-584,7000
-1748,604,10724
-732,-932,15072
520,-1160,20640
2096,-2096,20360
-1608,-232,26196
88,-2304,24872
2440,-3952,25520
1388,-3924,27196
2080,-3192,22224
488,-1184,19932
132,-564,21624
1776,-2084,19136
2400,-3220,18496
1808,-1892,16904
104,-1132,15996
116,-1348,15616
-280,-1372,15088
-212,-1544,14336
-212,-2432,15292
-196,-2488,15372
-108,-2496,15556
556,-2372,14444
300,-2476,15444
1484,-3012,16228
1288,-2496,16108
1548,-2328,15764
960,-2012,15312
-4,-1388,16108
296,-2032,15524
800,-2320,14340
196,-1696,15800
876,-2548,14820
724,-2100,14572
