x,y,z
1656,268,14876
528,1440,15868
280,900,14664
1036,812,14512
1584,-180,15020
348,1084,16016
-148,1376,15668
908,1076,14064
1388,444,15028
968,472,16040
496,1332,15624
424,1272,15528
1364,428,14456
756,736,15312
-1104,1064,17276
1436,1144,11448
712,176,15036
-640,64,17368
-1204,1404,14472
-1520,768,13032
-3156,1228,14688
-3700,1788,14516
-6724,1596,15948
-10028,2052,15144
-13404,2352,16688
-15656,2376,14616
-17356,4852,14024
-17236,4080,16764
-11772,480,15360
-5572,-2828,15548
-1464,-4464,18040
5652,-3516,14084
14320,-8432,15468
14956,-7912,22300
18656,-5540,16868
16292,-3692,15028
9860,-1124,16484
4840,816,16228
1128,1756,16920
948,1392,14484
2424,980,12752
-1300,1292,17832
-2104,2264,13960
-428,2016,7656
-2816,1508,11980
-3964,2420,8620
692,1028,-3408
1264,-1264,-4788
-1216,-2896,164
392,-3088,-4772
2764,-4784,-3700
3636,-9052,4888
-2776,-3332,17292
-2340,-2512,21756
1056,-9252,32767
-3716,-8128,32767
908,-6160,32767
-40,-8360,32660
-3236,-6328,31908
-808,-6248,21036
-1732,-4956,17868
-1748,-5096,15904
-356,-5212,13112
-2712,-4224,17940
-660,-4440,12460
1184,-5500,9652
-392,-6392,18076
-236,-5824,19776
3212,-8120,15636
4800,-8552,22064
5092,-9164,29396
8680,-8580,21948
10456,-8140,17912
5552,-6940,20228
7316,-6536,11492
8172,-7424,5872
6304,-5792,4864
4864,-5680,-744
2376,-5392,1260
-64,-5284,-5300
-2140,-4076,-10340
-8048,-7040,420
-13640,-2644,6544
-8928,-5476,-3376
-9168,-5268,532
-12560,-6768,12768
-17932,-8920,17008
-20000,-5448,9076
-15340,-5300,6940
-13656,-14404,19088
-12468,-11848,22148
-12200,-11760,21492
-13348,-11636,24468
-9392,-14040,25744
244,-17284,21184
-1752,-15552,27404
2900,-13396,17164
10576,-17204,15552
10416,-16516,20356
8808,-14744,16828
5836,-12404,14980
3408,-11360,14248
1524,-10356,12092
-268,-11192,11940
-3040,-9424,11048
-3340,-8704,9440
-2184,-11212,10916
-3576,-10368,13668
-4072,-8648,10596
-3552,-8920,8976
-2980,-10440,10872
-4488,-8976,12252
-5544,-7932,11368
-3844,-9668,11224
-3432,-10948,12228
-4152,-9272,11592
-4700,-8996,12792
-4652,-8964,14060
