x,y,z
-3976,4420,16332
2008,3092,15388
-404,3880,13488
-652,3908,12792
1592,3720,14164
2036,3340,15640
132,3396,15072
-320,3136,14612
204,3416,15312
1388,3272,15584
676,2784,15676
488,3320,15032
556,3104,15136
636,3124,15076
-580,3012,14876
-28,2852,14920
1324,3016,14708
524,3380,13980
36,3400,14188
244,3476,14900
112,3592,14864
-1300,3196,14080
-1280,3184,13360
-740,3316,13208
-4688,2724,12720
-10928,1632,12980
-14604,1032,12216
-19308,-1220,13688
-23944,-4600,15764
-24072,-5844,16384
-17544,-5804,16692
-10660,-6832,15800
376,-5840,17452
10100,-4324,19340
16240,-2044,22184
20760,620,20148
21648,3116,18108
21020,4084,15396
15500,3624,15512
14020,3752,14436
11068,4048,14616
5604,3304,15156
2616,2512,15020
1916,3156,14692
1572,2748,15040
672,3112,14028
1440,3960,13860
-788,2988,13380
-4596,1252,12948
-700,1036,10168
5800,2420,836
4072,1460,-8828
2104,1476,-10792
-928,-1156,-6460
-4284,-1964,1352
3268,-2304,11944
4072,-3264,21152
-2876,-4524,31272
-964,-3072,32767
3144,-1836,32767
768,-3296,32767
808,-1628,28232
4864,-1980,21424
1628,-2888,16940
-944,-1592,15924
3108,-1724,15176
1360,-2080,14164
-3252,-1812,14080
860,-1656,15924
1660,-2028,15864
748,-2048,16860
2876,-1740,17556
4236,-2304,18944
2380,-2692,20872
7908,-1832,22696
12192,-1572,23168
13252,-260,22112
15328,-1480,17828
16760,-668,11516
14112,-1668,4152
11220,-1880,776
8324,-2576,-48
2904,-5684,-376
-864,-6280,-3180
-8444,-5588,-4648
-12900,-7456,-4756
-16720,-10568,-1520
-19652,-11352,4476
-24024,-16316,9872
-21728,-14080,14900
-18932,-11704,20836
-20056,-14276,26732
-18112,-13008,28268
-7172,-10636,29460
-5244,-13008,29896
1152,-11696,30320
5644,-11904,27440
4364,-12436,23736
10384,-9648,20296
14920,-8448,16788
10640,-9144,15436
7800,-8692,16428
10572,-7788,14920
6688,-7948,12780
2688,-7840,12972
3552,-7308,13300
1276,-7760,13640
-1220,-8004,12512
400,-7308,12936
-944,-8060,14756
-3036,-8420,14680
-2684,-7920,13396
-2400,-7660,12500
-488,-7904,12152
520,-7468,13544
-444,-7692,13568
-2116,-7952,12308
-2024,-7676,12628
-1080,-7820,14596
-1812,-8388,13952
-2968,-7848,12584
-2500,-7456,11744
-1048,-7236,12216
-80,-6748,12608
