x,y,z
0.00,0.00,0.00
0.00,0.00,0.00
-0.81,-0.32,-2.89
-0.93,-1.03,-5.18
0.57,-1.81,-7.10
-1.23,-0.39,-6.73
-0.07,-1.93,-7.34
-2.91,-0.61,-4.48
-5.14,-0.61,-6.55
-17.04,0.36,-5.55
-43.81,2.90,-4.87
-79.76,5.76,-8.95
-93.60,-2.17,-13.24
-76.97,-20.89,-3.20
-30.74,-36.25,2.17
13.59,-42.49,4.04
54.52,-46.26,8.98
68.74,-40.20,9.29
53.94,-25.11,-15.95
23.88,-14.13,-59.73
6.69,-20.32,-76.70
-1.83,-34.73,-57.41
-1.84,-49.75,-33.92
-5.59,-55.13,-6.32
-11.57,-63.88,35.03
-13.15,-63.38,46.80
-6.11,-59.87,34.50
10.39,-58.43,26.48
33.88,-66.31,22.05
40.99,-69.20,19.10
41.77,-73.44,-2.12
27.81,-73.46,-41.16
-5.31,-65.90,-83.19
-42.77,-60.79,-100.00
-73.01,-59.35,-88.12
-91.26,-61.67,-55.71
-100.00,-64.97,-12.20
-84.24,-78.33,21.78
-54.12,-91.12,38.01
-16.21,-97.26,28.29
12.22,-100.00,17.68
29.46,-98.66,-0.48
28.78,-92.78,-11.35
11.78,-82.92,-19.14
-9.62,-75.85,-24.16
-23.09,-72.16,-28.03
-27.69,-71.82,-24.28
-29.61,-72.56,-18.72
0.00,0.00,0.00
0.00,0.00,0.00
