x,y,z
0.00,0.00,0.00
0.00,0.00,0.00
3.43,-1.58,0.70
10.83,-3.22,-1.37
11.78,-4.51,1.62
8.88,-4.44,-0.97
8.95,-4.10,-1.28
6.30,-3.50,-5.33
-12.97,-5.43,-9.04
-48.91,-13.14,-8.95
-76.34,-24.80,-4.77
-65.77,-35.37,1.71
-30.40,-38.23,12.79
16.08,-35.46,17.12
68.40,-26.43,16.69
98.91,-15.32,13.68
89.66,-5.12,5.86
50.30,-4.11,-5.54
30.92,-6.06,-33.49
14.35,-11.48,-71.20
16.46,-18.32,-72.52
12.77,-26.74,-41.60
19.58,-32.59,-10.34
14.68,-38.71,21.93
19.06,-40.48,59.98
13.37,-39.44,62.50
17.95,-37.57,36.73
21.16,-37.23,17.92
37.50,-35.35,26.01
59.92,-34.10,22.25
76.66,-34.62,-3.00
74.06,-39.91,-36.29
46.57,-47.32,-76.87
-11.57,-65.40,-100.00
-69.59,-80.21,-82.62
-100.00,-91.25,-34.14
-94.91,-98.25,19.59
-56.07,-100.00,60.45
-2.85,-91.68,71.80
39.81,-85.78,54.89
57.76,-81.49,28.18
53.56,-75.95,0.76
33.08,-73.77,-10.25
16.82,-72.44,-16.44
3.49,-72.29,-16.40
-2.46,-72.68,-14.53
-7.38,-73.07,-15.77
-2.85,-71.25,-18.29
0.00,0.00,0.00
0.00,0.00,0.00
