x,y,z
0.00,0.00,0.00
0.00,0.00,0.00
4.17,-0.25,-3.25
3.81,3.41,-3.73
4.98,2.73,-3.91
4.35,3.56,-3.32
4.03,3.85,-5.42
2.70,4.45,-4.34
2.16,3.17,-6.29
-4.54,2.28,-6.05
-25.80,4.92,-10.92
-55.04,8.66,-12.15
-76.39,4.80,-16.55
-80.81,-7.05,-14.81
-56.64,-22.51,-4.03
-3.91,-38.76,3.73
35.73,-44.28,6.41
61.18,-42.50,9.08
59.95,-30.09,1.94
41.18,-16.77,-31.04
16.52,-13.53,-64.35
2.40,-23.18,-55.90
-14.27,-33.05,-35.81
-13.31,-44.18,-12.31
-16.24,-52.23,17.70
-25.25,-50.47,44.80
-22.44,-49.42,46.12
1.63,-50.19,40.48
28.29,-61.04,37.25
48.36,-69.81,16.66
47.58,-74.76,-5.26
34.02,-73.61,-41.23
1.84,-69.54,-78.32
-43.23,-57.96,-100.00
-85.52,-50.00,-87.03
-100.00,-55.79,-57.88
-99.68,-66.45,-22.55
-75.94,-81.34,14.31
-41.85,-92.69,30.94
-0.68,-100.00,27.62
17.13,-95.05,25.02
30.05,-90.93,12.91
20.86,-79.73,-4.84
4.66,-71.03,-17.12
-15.43,-64.49,-17.54
-20.94,-64.28,-20.73
-25.05,-61.19,-21.91
-22.30,-63.30,-17.36
0.00,0.00,0.00
0.00,0.00,0.00
